{
  "extends": "tslint:recommended",
  "rules": {
    "no-console": [false],
    "object-literal-sort-keys": false,
    "no-consecutive-blank-lines": [true, 2],
    "no-string-literal": false,
    "quotemark": [true, "single", "avoid-escape"],
    "variable-name": [true, "ban-keywords", "check-format",
      "allow-leading-underscore"]
  }
}
